
aru_newyear_spr.png
size: 1024,1024
format: RGBA8888
filter: Linear,Linear
repeat: none
00_default
  rotate: false
  xy: 746, 723
  size: 83, 74
  orig: 83, 74
  offset: 0, 0
  index: -1
01_normal
  rotate: false
  xy: 813, 763
  size: 83, 73
  orig: 83, 73
  offset: 0, 0
  index: -1
03_smile
  rotate: false
  xy: 764, 587
  size: 83, 69
  orig: 83, 69
  offset: 0, 0
  index: -1
04_embarrass
  rotate: false
  xy: 704, 641
  size: 85, 83
  orig: 85, 83
  offset: 0, 0
  index: -1
05_serious
  rotate: false
  xy: 802, 516
  size: 83, 73
  orig: 83, 73
  offset: 0, 0
  index: -1
06_depressed
  rotate: false
  xy: 697, 544
  size: 79, 72
  orig: 79, 72
  offset: 0, 0
  index: -1
07
  rotate: false
  xy: 174, 348
  size: 80, 67
  orig: 80, 67
  offset: 0, 0
  index: -1
08
  rotate: false
  xy: 728, 472
  size: 77, 77
  orig: 77, 77
  offset: 0, 0
  index: -1
09
  rotate: false
  xy: 768, 412
  size: 82, 70
  orig: 82, 70
  offset: 0, 0
  index: -1
10
  rotate: false
  xy: 681, 399
  size: 85, 75
  orig: 85, 75
  offset: 0, 0
  index: -1
11
  rotate: false
  xy: 612, 466
  size: 79, 76
  orig: 79, 76
  offset: 0, 0
  index: -1
12
  rotate: false
  xy: 612, 544
  size: 83, 72
  orig: 83, 72
  offset: 0, 0
  index: -1
13
  rotate: false
  xy: 88, 337
  size: 84, 77
  orig: 84, 77
  offset: 0, 0
  index: -1
14
  rotate: false
  xy: 612, 617
  size: 91, 90
  orig: 91, 90
  offset: 0, 0
  index: -1
15
  rotate: false
  xy: 2, 315
  size: 85, 100
  orig: 85, 100
  offset: 0, 0
  index: -1
aru_newyear
  rotate: true
  xy: 2, 56
  size: 359, 1004
  orig: 359, 1004
  offset: 0, 0
  index: -1
eyeclose
  rotate: false
  xy: 791, 657
  size: 85, 73
  orig: 85, 73
  offset: 0, 0
  index: -1
gun
  rotate: false
  xy: 2, 416
  size: 608, 591
  orig: 608, 591
  offset: 0, 0
  index: -1
halo_1
  rotate: false
  xy: 612, 821
  size: 367, 187
  orig: 367, 187
  offset: 0, 0
  index: -1
halo_2
  rotate: false
  xy: 612, 709
  size: 149, 135
  orig: 149, 135
  offset: 0, 0
  index: -1
