
atsuko_spr.png
size: 1024,1024
format: RGBA8888
filter: Linear,Linear
repeat: none
01_normal
  rotate: false
  xy: 364, 938
  size: 76, 66
  orig: 76, 66
  offset: 0, 0
  index: -1
02_respond
  rotate: false
  xy: 442, 938
  size: 76, 66
  orig: 76, 66
  offset: 0, 0
  index: -1
03_smile
  rotate: false
  xy: 598, 926
  size: 81, 78
  orig: 81, 78
  offset: 0, 0
  index: -1
04_embrass
  rotate: false
  xy: 215, 939
  size: 76, 65
  orig: 76, 65
  offset: 0, 0
  index: -1
05_serious
  rotate: false
  xy: 147, 943
  size: 66, 61
  orig: 66, 61
  offset: 0, 0
  index: -1
06_shout
  rotate: false
  xy: 293, 939
  size: 69, 65
  orig: 69, 65
  offset: 0, 0
  index: -1
07
  rotate: false
  xy: 75, 950
  size: 70, 54
  orig: 70, 54
  offset: 0, 0
  index: -1
atsuko
  rotate: true
  xy: 2, 38
  size: 703, 1002
  orig: 703, 1002
  offset: 0, 0
  index: -1
default light
  rotate: false
  xy: 2, 960
  size: 71, 44
  orig: 71, 44
  offset: 0, 0
  index: -1
eyeclose
  rotate: false
  xy: 520, 938
  size: 76, 66
  orig: 76, 66
  offset: 0, 0
  index: -1
halo
  rotate: false
  xy: 2, 743
  size: 268, 194
  orig: 268, 194
  offset: 0, 0
  index: -1
object_fronthair
  rotate: true
  xy: 681, 918
  size: 86, 111
  orig: 86, 111
  offset: 0, 0
  index: -1
oo_default
  rotate: true
  xy: 794, 884
  size: 120, 132
  orig: 120, 132
  offset: 0, 0
  index: -1
