
hanako_spr.png
size: 1024,1024
format: RGBA8888
filter: Linear,Linear
repeat: none
01_normal
  rotate: false
  xy: 346, 923
  size: 87, 74
  orig: 87, 74
  offset: 0, 0
  index: -1
02_respond
  rotate: false
  xy: 524, 918
  size: 87, 79
  orig: 87, 79
  offset: 0, 0
  index: -1
00_default
  rotate: false
  xy: 524, 918
  size: 87, 79
  orig: 87, 79
  offset: 0, 0
  index: -1
03_smile
  rotate: false
  xy: 87, 928
  size: 84, 69
  orig: 84, 69
  offset: 0, 0
  index: -1
04_embarrassed
  rotate: false
  xy: 2, 930
  size: 83, 67
  orig: 83, 67
  offset: 0, 0
  index: -1
05_serious
  rotate: false
  xy: 173, 928
  size: 85, 69
  orig: 85, 69
  offset: 0, 0
  index: -1
06_shout
  rotate: false
  xy: 260, 924
  size: 84, 73
  orig: 84, 73
  offset: 0, 0
  index: -1
eyeclose
  rotate: false
  xy: 435, 923
  size: 87, 74
  orig: 87, 74
  offset: 0, 0
  index: -1
halo
  rotate: false
  xy: 613, 843
  size: 199, 154
  orig: 199, 154
  offset: 0, 0
  index: -1
haniel
  rotate: true
  xy: 2, 335
  size: 506, 995
  orig: 506, 995
  offset: 0, 0
  index: -1
