
misaki_spr.png
size: 1024,1024
format: RGBA8888
filter: Linear,Linear
repeat: none
01_normal
  rotate: false
  xy: 2, 665
  size: 78, 66
  orig: 78, 66
  offset: 0, 0
  index: -1
02_respond
  rotate: false
  xy: 76, 191
  size: 78, 66
  orig: 78, 66
  offset: 0, 0
  index: -1
00_default
  rotate: false
  xy: 76, 191
  size: 78, 66
  orig: 78, 66
  offset: 0, 0
  index: -1
03_smile
  rotate: false
  xy: 2, 221
  size: 78, 66
  orig: 78, 66
  offset: 0, 0
  index: -1
04_embarassed
  rotate: false
  xy: 2, 599
  size: 78, 65
  orig: 78, 65
  offset: 0, 0
  index: -1
05_serious
  rotate: false
  xy: 2, 411
  size: 78, 59
  orig: 78, 59
  offset: 0, 0
  index: -1
06_depressed
  rotate: false
  xy: 2, 473
  size: 78, 60
  orig: 78, 60
  offset: 0, 0
  index: -1
07_cry
  rotate: false
  xy: 2, 350
  size: 76, 60
  orig: 76, 60
  offset: 0, 0
  index: -1
07_smile 2
  rotate: false
  xy: 2, 534
  size: 76, 63
  orig: 76, 63
  offset: 0, 0
  index: -1
08_cry2
  rotate: false
  xy: 2, 288
  size: 75, 59
  orig: 75, 59
  offset: 0, 0
  index: -1
eyeclose
  rotate: false
  xy: 78, 315
  size: 77, 66
  orig: 77, 66
  offset: 0, 0
  index: -1
flush
  rotate: false
  xy: 78, 277
  size: 62, 36
  orig: 62, 36
  offset: 0, 0
  index: -1
fronthair
  rotate: false
  xy: 2, 733
  size: 120, 119
  orig: 120, 119
  offset: 0, 0
  index: -1
halo
  rotate: false
  xy: 2, 854
  size: 138, 153
  orig: 138, 153
  offset: 0, 0
  index: -1
mask_defualt
  rotate: false
  xy: 80, 382
  size: 77, 65
  orig: 77, 65
  offset: 0, 0
  index: -1
mask_full
  rotate: false
  xy: 79, 571
  size: 81, 64
  orig: 81, 64
  offset: 0, 0
  index: -1
misaki
  rotate: false
  xy: 2, 3
  size: 716, 1004
  orig: 716, 1004
  offset: 0, 0
  index: -1
