
utaha_spr.png
size: 1024,1024
format: RGBA8888
filter: Linear,Linear
repeat: none
01_normal
  rotate: false
  xy: 2, 365
  size: 108, 106
  orig: 108, 106
  offset: 0, 0
  index: -1
02_respond
  rotate: false
  xy: 2, 587
  size: 108, 106
  orig: 108, 106
  offset: 0, 0
  index: -1
03_smile
  rotate: false
  xy: 544, 676
  size: 108, 105
  orig: 108, 105
  offset: 0, 0
  index: -1
04_embarrass
  rotate: false
  xy: 2, 481
  size: 108, 103
  orig: 108, 103
  offset: 0, 0
  index: -1
05_serious
  rotate: false
  xy: 552, 803
  size: 106, 106
  orig: 106, 106
  offset: 0, 0
  index: -1
06_depressed
  rotate: false
  xy: 2, 155
  size: 97, 100
  orig: 97, 100
  offset: 0, 0
  index: -1
07_suprise
  rotate: false
  xy: 2, 695
  size: 108, 111
  orig: 108, 111
  offset: 0, 0
  index: -1
eyeclose
  rotate: false
  xy: 2, 257
  size: 104, 106
  orig: 104, 106
  offset: 0, 0
  index: -1
fronthair
  rotate: false
  xy: 106, 953
  size: 89, 69
  orig: 89, 69
  offset: 0, 0
  index: -1
halo
  rotate: false
  xy: 382, 910
  size: 219, 112
  orig: 219, 112
  offset: 0, 0
  index: -1
utaha1
  rotate: true
  xy: 463, 4
  size: 684, 487
  orig: 684, 487
  offset: 0, 0
  index: -1
utaha2
  rotate: false
  xy: 2, 472
  size: 683, 551
  orig: 683, 551
  offset: 0, 0
  index: -1
